{
  "page": 1,
  "total_results": 343628,
  "total_pages": 17182,
  "results": [
    {
      "vote_count": 6471,
      "id": 198663,
      "video": false,
      "vote_average": 7,
      "title": "The Maze Runner",
      "popularity": 523.330861,
      "poster_path": "/coss7RgL0NH6g4fC2s5atvf3dFO.jpg",
      "original_language": "en",
      "original_title": "The Maze Runner",
      "genre_ids": [
        28,
        9648,
        878,
        53
      ],
      "backdrop_path": "/lkOZcsXcOLZYeJ2YxJd3vSldvU4.jpg",
      "adult": false,
      "overview": "Set in a post-apocalyptic world, young Thomas is deposited in a community of boys after his memory is erased, soon learning they're all trapped in a maze that will require him to join forces with fellow “runners” for a shot at escape.",
      "release_date": "2014-09-10"
    },
    {
      "vote_count": 6124,
      "id": 346364,
      "video": false,
      "vote_average": 7.1,
      "title": "It",
      "popularity": 485.574679,
      "poster_path": "/9E2y5Q7WlCVNEhP5GiVTjhEhx1o.jpg",
      "original_language": "en",
      "original_title": "It",
      "genre_ids": [
        18,
        27,
        53
      ],
      "backdrop_path": "/tcheoA2nPATCm2vvXw2hVQoaEFD.jpg",
      "adult": false,
      "overview": "In a small town in Maine, seven children known as The Losers Club come face to face with life problems, bullies and a monster that takes the shape of a clown called Pennywise.",
      "release_date": "2017-09-05"
    },
    {
      "vote_count": 1842,
      "id": 353486,
      "video": false,
      "vote_average": 6.4,
      "title": "Jumanji: Welcome to the Jungle",
      "popularity": 428.689655,
      "poster_path": "/bXrZ5iHBEjH7WMidbUDQ0U2xbmr.jpg",
      "original_language": "en",
      "original_title": "Jumanji: Welcome to the Jungle",
      "genre_ids": [
        28,
        12,
        35,
        10751
      ],
      "backdrop_path": "/cpz070zEKbPGXzCWuQsNt42PqXY.jpg",
      "adult": false,
      "overview": "The tables are turned as four teenagers are sucked into Jumanji's world - pitted against rhinos, black mambas and an endless variety of jungle traps and puzzles. To survive, they'll play as characters from the game.",
      "release_date": "2017-12-08"
    },
    {
      "vote_count": 6578,
      "id": 245891,
      "video": false,
      "vote_average": 7,
      "title": "John Wick",
      "popularity": 370.031025,
      "poster_path": "/5vHssUeVe25bMrof1HyaPyWgaP.jpg",
      "original_language": "en",
      "original_title": "John Wick",
      "genre_ids": [
        28,
        53
      ],
      "backdrop_path": "/umC04Cozevu8nn3JTDJ1pc7PVTn.jpg",
      "adult": false,
      "overview": "Ex-hitman John Wick comes out of retirement to track down the gangsters that took everything from him.",
      "release_date": "2014-10-22"
    },
    {
      "vote_count": 3454,
      "id": 8844,
      "video": false,
      "vote_average": 7,
      "title": "Jumanji",
      "popularity": 368.928616,
      "poster_path": "/8wBKXZNod4frLZjAKSDuAcQ2dEU.jpg",
      "original_language": "en",
      "original_title": "Jumanji",
      "genre_ids": [
        12,
        14,
        10751
      ],
      "backdrop_path": "/7k4zEgUZbzMHawDaMc9yIkmY1qR.jpg",
      "adult": false,
      "overview": "When siblings Judy and Peter discover an enchanted board game that opens the door to a magical world, they unwittingly invite Alan -- an adult who's been trapped inside the game for 26 years -- into their living room. Alan's only hope for freedom is to finish the game, which proves risky as all three find themselves running from giant rhinoceroses, evil monkeys and other terrifying creatures.",
      "release_date": "1995-12-15"
    },
    {
      "vote_count": 3422,
      "id": 284053,
      "video": false,
      "vote_average": 7.5,
      "title": "Thor: Ragnarok",
      "popularity": 324.095848,
      "poster_path": "/oSLd5GYGsiGgzDPKTwQh7wamO8t.jpg",
      "original_language": "en",
      "original_title": "Thor: Ragnarok",
      "genre_ids": [
        878,
        28,
        12,
        35
      ],
      "backdrop_path": "/kaIfm5ryEOwYg8mLbq8HkPuM1Fo.jpg",
      "adult": false,
      "overview": "Thor is imprisoned on the other side of the universe and finds himself in a race against time to get back to Asgard to stop Ragnarok, the prophecy of destruction to his homeworld and the end of Asgardian civilization, at the hands of an all-powerful new threat, the ruthless Hela.",
      "release_date": "2017-10-25"
    },
    {
      "vote_count": 810,
      "id": 316029,
      "video": false,
      "vote_average": 8,
      "title": "The Greatest Showman",
      "popularity": 300.746538,
      "poster_path": "/dfhztJRiElqmYW4kpvjYe1gENsD.jpg",
      "original_language": "en",
      "original_title": "The Greatest Showman",
      "genre_ids": [
        18,
        10751,
        10402,
        10749
      ],
      "backdrop_path": "/zpq404Sk7qQ7N4x3xOeNgp74GtU.jpg",
      "adult": false,
      "overview": "The story of American showman P.T. Barnum, founder of the circus that became the famous traveling Ringling Bros. and Barnum & Bailey Circus.",
      "release_date": "2017-12-20"
    },
    {
      "vote_count": 1688,
      "id": 354912,
      "video": false,
      "vote_average": 7.7,
      "title": "Coco",
      "popularity": 291.285884,
      "poster_path": "/eKi8dIrr8voobbaGzDpe8w0PVbC.jpg",
      "original_language": "en",
      "original_title": "Coco",
      "genre_ids": [
        12,
        16,
        10751,
        14
      ],
      "backdrop_path": "/askg3SMvhqEl4OL52YuvdtY40Yb.jpg",
      "adult": false,
      "overview": "Despite his family’s baffling generations-old ban on music, Miguel dreams of becoming an accomplished musician like his idol, Ernesto de la Cruz. Desperate to prove his talent, Miguel finds himself in the stunning and colorful Land of the Dead following a mysterious chain of events. Along the way, he meets charming trickster Hector, and together, they set off on an extraordinary journey to unlock the real story behind Miguel's family history.",
      "release_date": "2017-10-27"
    },
    {
      "vote_count": 6996,
      "id": 321612,
      "video": false,
      "vote_average": 6.8,
      "title": "Beauty and the Beast",
      "popularity": 283.018859,
      "poster_path": "/tWqifoYuwLETmmasnGHO7xBjEtt.jpg",
      "original_language": "en",
      "original_title": "Beauty and the Beast",
      "genre_ids": [
        10751,
        14,
        10749
      ],
      "backdrop_path": "/6aUWe0GSl69wMTSWWexsorMIvwU.jpg",
      "adult": false,
      "overview": "A live-action adaptation of Disney's version of the classic tale of a cursed prince and a beautiful young woman who helps him break the spell.",
      "release_date": "2017-03-16"
    },
    {
      "vote_count": 352,
      "id": 460793,
      "video": false,
      "vote_average": 5.9,
      "title": "Olaf's Frozen Adventure",
      "popularity": 275.788402,
      "poster_path": "/47pLZ1gr63WaciDfHCpmoiXJlVr.jpg",
      "original_language": "en",
      "original_title": "Olaf's Frozen Adventure",
      "genre_ids": [
        12,
        16,
        35,
        10751,
        14,
        10402
      ],
      "backdrop_path": "/9K4QqQZg4TVXcxBGDiVY4Aey3Rn.jpg",
      "adult": false,
      "overview": "Olaf is on a mission to harness the best holiday traditions for Anna, Elsa, and Kristoff.",
      "release_date": "2017-10-27"
    },
    {
      "vote_count": 226,
      "id": 347882,
      "video": false,
      "vote_average": 5.3,
      "title": "Sleight",
      "popularity": 269.702014,
      "poster_path": "/wridRvGxDqGldhzAIh3IcZhHT5F.jpg",
      "original_language": "en",
      "original_title": "Sleight",
      "genre_ids": [
        18,
        53,
        28,
        878
      ],
      "backdrop_path": "/2SEgJ0mHJ7TSdVDbkGU061tR33K.jpg",
      "adult": false,
      "overview": "A young street magician is left to take care of his little sister after his mother's passing and turns to drug dealing in the Los Angeles party scene to keep a roof over their heads. When he gets into trouble with his supplier, his sister is kidnapped and he is forced to rely on both his sleight of hand and brilliant mind to save her.",
      "release_date": "2017-04-28"
    },
    {
      "vote_count": 238,
      "id": 406563,
      "video": false,
      "vote_average": 6.1,
      "title": "Insidious: The Last Key",
      "popularity": 259.282136,
      "poster_path": "/nb9fc9INMg8kQ8L7sE7XTNsZnUX.jpg",
      "original_language": "en",
      "original_title": "Insidious: The Last Key",
      "genre_ids": [
        9648,
        27,
        53
      ],
      "backdrop_path": "/auSRjQyVLw212IjATAbO3KOyxZg.jpg",
      "adult": false,
      "overview": "Parapsychologist Elise Rainier and her team travel to Five Keys, N.M., to investigate a man's claim of a haunting. Terror soon strikes when Rainier realizes that the house he lives in was her family's old home.",
      "release_date": "2018-01-03"
    },
    {
      "vote_count": 195,
      "id": 399035,
      "video": false,
      "vote_average": 5.5,
      "title": "The Commuter",
      "popularity": 258.459191,
      "poster_path": "/rDeGK6FIUfVcXmuBdEORPAGPMNg.jpg",
      "original_language": "en",
      "original_title": "The Commuter",
      "genre_ids": [
        28,
        80,
        18,
        9648,
        53
      ],
      "backdrop_path": "/nlsNr1BEmRgRYYOO24NSHm6BXYb.jpg",
      "adult": false,
      "overview": "A businessman on his daily commute home gets unwittingly caught up in a criminal conspiracy that threatens not only his life but the lives of those around him.",
      "release_date": "2018-01-11"
    },
    {
      "vote_count": 5560,
      "id": 211672,
      "video": false,
      "vote_average": 6.4,
      "title": "Minions",
      "popularity": 252.426954,
      "poster_path": "/q0R4crx2SehcEEQEkYObktdeFy.jpg",
      "original_language": "en",
      "original_title": "Minions",
      "genre_ids": [
        10751,
        16,
        12,
        35
      ],
      "backdrop_path": "/qLmdjn2fv0FV2Mh4NBzMArdA0Uu.jpg",
      "adult": false,
      "overview": "Minions Stuart, Kevin and Bob are recruited by Scarlet Overkill, a super-villain who, alongside her inventor husband Herb, hatches a plot to take over the world.",
      "release_date": "2015-06-17"
    },
    {
      "vote_count": 3482,
      "id": 181808,
      "video": false,
      "vote_average": 7.2,
      "title": "Star Wars: The Last Jedi",
      "popularity": 251.314062,
      "poster_path": "/kOVEVeg59E0wsnXmF9nrh6OmWII.jpg",
      "original_language": "en",
      "original_title": "Star Wars: The Last Jedi",
      "genre_ids": [
        28,
        12,
        14,
        878
      ],
      "backdrop_path": "/5Iw7zQTHVRBOYpA0V6z0yypOPZh.jpg",
      "adult": false,
      "overview": "Rey develops her newly discovered abilities with the guidance of Luke Skywalker, who is unsettled by the strength of her powers. Meanwhile, the Resistance prepares to do battle with the First Order.",
      "release_date": "2017-12-13"
    },
    {
      "vote_count": 205,
      "id": 446354,
      "video": false,
      "vote_average": 6.8,
      "title": "The Post",
      "popularity": 238.563497,
      "poster_path": "/qyRwj5VvuTRdJ76o2grP93grNxt.jpg",
      "original_language": "en",
      "original_title": "The Post",
      "genre_ids": [
        18,
        36
      ],
      "backdrop_path": "/8sb4aBST28vN3rBz704XJczS0Ld.jpg",
      "adult": false,
      "overview": "A cover-up that spanned four U.S. Presidents pushed the country's first female newspaper publisher and a hard-driving editor to join an unprecedented battle between journalist and government. Inspired by true events.",
      "release_date": "2017-12-22"
    },
    {
      "vote_count": 2867,
      "id": 335984,
      "video": false,
      "vote_average": 7.4,
      "title": "Blade Runner 2049",
      "popularity": 215.875254,
      "poster_path": "/gajva2L0rPYkEWjzgFlBXCAVBE5.jpg",
      "original_language": "en",
      "original_title": "Blade Runner 2049",
      "genre_ids": [
        9648,
        878,
        53
      ],
      "backdrop_path": "/mVr0UiqyltcfqxbAUcLl9zWL8ah.jpg",
      "adult": false,
      "overview": "Thirty years after the events of the first film, a new blade runner, LAPD Officer K, unearths a long-buried secret that has the potential to plunge what's left of society into chaos. K's discovery leads him on a quest to find Rick Deckard, a former LAPD blade runner who has been missing for 30 years.",
      "release_date": "2017-10-04"
    },
    {
      "vote_count": 3771,
      "id": 294254,
      "video": false,
      "vote_average": 6.5,
      "title": "Maze Runner: The Scorch Trials",
      "popularity": 212.596322,
      "poster_path": "/vlTPQANjLYTebzFJM1G4KeON0cb.jpg",
      "original_language": "en",
      "original_title": "Maze Runner: The Scorch Trials",
      "genre_ids": [
        28
      ],
      "backdrop_path": "/iapRFMGKvN9tsjqPlN7MIDTCezG.jpg",
      "adult": false,
      "overview": "Thomas and his fellow Gladers face their greatest challenge yet: searching for clues about the mysterious and powerful organization known as WCKD. Their journey takes them to the Scorch, a desolate landscape filled with unimaginable obstacles. Teaming up with resistance fighters, the Gladers take on WCKD’s vastly superior forces and uncover its shocking plans for them all.",
      "release_date": "2015-09-09"
    },
    {
      "vote_count": 792,
      "id": 274855,
      "video": false,
      "vote_average": 5.7,
      "title": "Geostorm",
      "popularity": 172.113051,
      "poster_path": "/nrsx0jEaBgXq4PWo7SooSnYJTv.jpg",
      "original_language": "en",
      "original_title": "Geostorm",
      "genre_ids": [
        28,
        878,
        53
      ],
      "backdrop_path": "/6jrMdMe4sMygTcJPpQTjKPmP4l0.jpg",
      "adult": false,
      "overview": "After an unprecedented series of natural disasters threatened the planet, the world's leaders came together to create an intricate network of satellites to control the global climate and keep everyone safe. But now, something has gone wrong: the system built to protect Earth is attacking it, and it becomes a race against the clock to uncover the real threat before a worldwide geostorm wipes out everything and everyone along with it.",
      "release_date": "2017-10-13"
    },
    {
      "vote_count": 539,
      "id": 399055,
      "video": false,
      "vote_average": 7.3,
      "title": "The Shape of Water",
      "popularity": 168.062579,
      "poster_path": "/iLYLADGA5oKGM92Ns1j9CDgk3iI.jpg",
      "original_language": "en",
      "original_title": "The Shape of Water",
      "genre_ids": [
        12,
        18,
        14,
        10749,
        53
      ],
      "backdrop_path": "/bAISaVhsaoyyQMZ55cpTwCdzek4.jpg",
      "adult": false,
      "overview": "An other-worldly story, set against the backdrop of Cold War era America circa 1962, where a mute janitor working at a lab falls in love with an amphibious man being held captive there and devises a plan to help him escape.",
      "release_date": "2017-12-08"
    }
  ]
}